{
    "antifeatures": {
        "Ads": "Bu tətbiqdə reklam var",
        "DisabledAlgorithm": "Bu tətbiq zəif təhlükəsizlik imzasına malikdir",
        "KnownVuln": "Bu tətbiqdə məlum təhlükəsizlik zəifliyi var",
        "NSFW": "Bu tətbiqdə ictimailəşdirilməməli və ya hər yerdə görünməməli olan məzmun var",
        "NoSourceSince": "Mənbə kodu artıq mövcud deyil, yeniləmələr mümkün deyil",
        "NonFreeAdd": "Bu tətbiq azad olmayan əlavələri təbliğ edir",
        "NonFreeAssets": "Bu tətbiqdə azad olmayan amillər var",
        "NonFreeDep": "Bu tətbiq digər azad olmayan tətbiqlərdən asılıdır",
        "NonFreeNet": "Bu proqram azad olmayan şəbəkə xidmətinə təşviq edir və ya ondan tamamilə asılıdır",
        "Tracking": "Bu proqram sizin fəaliyyətlərinizi izləyir və hesabat verir",
        "UpstreamNonFree": "Orijinal mənbə kodu tamamilə azad deyil"
    },
    "app_categories": {
        "Connectivity": "Əlaqə",
        "Development": "İnkişaf",
        "Games": "Oyunlar",
        "Graphics": "Qrafika",
        "Internet": "Internet",
        "Money": "Pullar",
        "Multimedia": "Multimedia",
        "Navigation": "Naviqasiya",
        "Phone & SMS": "Telefon və SMS",
        "Reading": "Oxuma",
        "Science & Education": "Elm və təhsil",
        "Security": "Təhlükəsizlik",
        "Sports & Health": "Idman və sağlamlıq",
        "System": "Sistem",
        "Theming": "Rəngləndirmə",
        "Time": "Vaxt",
        "Writing": "Yazmaq",
        "show_all_packages": "Bütün %d paketlərini göstərin"
    },
    "index": {
        "download_fdroid": "F-Droid-ni yükləyin",
        "gpg_signature": "PGP İmza",
        "introduction": "F-Droid, Android platforması üçün FOSS (Azad və Açıq Mənbəli Proqram) tətbiqləri qura bilər. Müştəri ; tətbiqləri skan etməyi, quraşdırmağı və yeniləmələri cihazınızda görməyi asanlaşdırır.",
        "screenshot": "F-Droid Android tətbiqinin ekran görüntüsü",
        "title": "F-Droid Nədir?"
    },
    "mirrors": {
        "cn": "Çin Materiki",
        "de": "Almaniya",
        "indiana": "İndiana, ABŞ",
        "se": "İsveçrə",
        "tw": "Tayvan",
        "ua": "Ukrayna"
    },
    "navigation": {
        "about": "Haqqında",
        "apps": "Tətbiqlər",
        "contribute": "Töhfə Verin",
        "documentation": "Sənədlər",
        "edit_on_gitlab": "GitLab-da Redaktə edin",
        "forum": "Forum",
        "issues": "Problemlər",
        "news": "Xəbərlər",
        "translate_on_weblate": "Weblate-də Tərcümə edin"
    },
    "news": {
        "by": "müəllif",
        "newer_posts": "← Daha Yeni Yazılar",
        "older_posts": "Daha Köhnə Yazılar →",
        "posted_on": "{{ post_date }} Tarixində Dərc Edilib"
    },
    "package": {
        "added_on": "{{ package_added_date }} Tarixində Əlavə Edilib",
        "anti_features": "Anti-Xüsusiyyətlər",
        "anti_features_warning": "Bu tətbiqdə bəyənməyəcəyiniz xüsusiyyətlər var.",
        "author": "Müəllif",
        "build_log": "Quraşdırma Jurnalı",
        "build_metadata": "Qurulan Metadata",
        "changelog": "Dəyişiklik Jurnalı",
        "donate": "İanə Edin",
        "download": "Endirin {{ file_extension }}",
        "flattr": "Flattr",
        "gpg_signature": "PGP İmzası",
        "issue_tracker": "Problem İzləyici",
        "liberapay": "Liberapay",
        "license": "Lisenziya",
        "minimum_android_version": "Bu versiya Android {{ android_version }} və ya daha yenisini tələb edir.",
        "new_in_version": "{{ latest_version }} Versiyasında Yeni",
        "opencollective": "Açıq Kollektiv",
        "package_icon_alt": "paket simvolu",
        "package_screenshot_alt": "proqramın ekran görüntüsü",
        "packages": "Paketlər",
        "permissions": "İcazələr",
        "signed_by_developer": "Orijinal tərtibatçı tərəfindən quruldu və imzalandı.",
        "signed_by_fdroid": "F-Droid tərəfindən qurulmuş və imzalanmışdır və <a href=\"{{ source_code_url }}\">bu mənbə tar faylına uyğun olduğuna zəmanət verilir </a> .",
        "source_code": "Mənbə Kodu",
        "suggest_downloading_via_fdroid": "Aşağıdakı APK endirmələri sizə seçim imkanı versədə, bilməlisiniz ki, bu şəkildə quraşdırmaqla siz yeniləmə bildirişləri almayacaqsınız və bu, endirməyin daha az təhlükəsiz yoludur. F-Droid müştərisini quraşdırmağı və ondan istifadə etməyi tövsiyə edirik.",
        "suggested": "təklif edilən",
        "translation": "Tərcümə",
        "version_info": "<b>Versiya {{ package_version }}</b> ({{ package_version_code }})",
        "versions": "Versiyalar",
        "website": "Veb Sayt"
    },
    "permissions": {
        "permdesc_acceptHandovers": "Tətbiqə digər tətbiqdə başlayan zəngə davam etmək icazəsi verilir.",
        "permdesc_accessBackgroundLocation": "Bu tətbiq istənilən vaxt, hətta tətbiq istifadə olunmadıqda belə, məkana giriş edə bilər.",
        "permdesc_accessCoarseLocation": "Bu tətbiq istifadə olunan zaman məkan xidmətlərindən təqribi məkanınızı əldə edə bilər. Tətbiq tərəfindən məkanın əldə edilməsi üçün cihazınızda məkan xidmətləri aktiv olmalıdır.",
        "permdesc_accessDrmCertificates": "Tətbiqə DRM sertifikatları təmin etməyə və işlətməyə icazə verir. Normal tətbiqlər tərəfindən heç vaxt istənilməməlidir.",
        "permdesc_accessFineLocation": "Bu tətbiq istifadə olunan zaman məkan xidmətlərindən dəqiq məkanınızı əldə edə bilər. Tətbiq tərəfindən məkanın əldə edilməsi üçün cihazınızda məkan xidmətləri aktiv olmalıdır. Bu zaman batareya istifadəsi arta bilər.",
        "permdesc_accessImsCallService": "Tətbiqə müdaxilə olmadan zəng etmək üçün IMS xidmətindən istifadə etməyə imkan verir.",
        "permdesc_accessLocationExtraCommands": "Tətbiqə ekstra məkan provayder əmrlərinə girişə imkan verir. Bu, tətbiqə GPS və ya digər lokal mənbələrlə əməliyyata müdaxiləyə imkan verə bilər.",
        "permdesc_accessNetworkConditions": "Tətbiqə şəbəkə şəraiti üzrə müşahidələr üçün qulaq asmaq imkanı verir. Normal tətbiqlər üçün heç vaxt lazım olmamalıdır.",
        "permdesc_accessNetworkState": "Tətbiqə mövcud olan və qoşulan şəbəkələr kimi qoşulmalar haqqında məlumatı görməyə icazə verir.",
        "permdesc_accessNotifications": "Tətbiqə bildirişləri əldə etməyə, sınamağa və təmizləməyə imkan verir, buna digər tətbiqlər tərəfindən verilmiş bildirişlər də daxildir.",
        "permdesc_accessWifiState": "Tətbiqə Wi-Fi şəbəkələri haqqında məlumatı görməyə icazə verir, məsələn, Wi-Fi mövcudluğu və qoşulmuş Wi-Fi cihazlarının adları.",
        "permdesc_accessWimaxState": "Tətbiqə WiMAX mövcudluğu və qoşulmuş WiMAX şəbəkələrini təyin etməyə icazə verir.",
        "permdesc_access_notification_policy": "Tətbiqə \\\"Narahat Etməyin\\\" konfiqurasiyasını oxumağa və yazmağa icazə verin.",
        "permdesc_activityRecognition": "Bu tətbiq fiziki fəaliyyətinizi tanıya bilər.",
        "permdesc_addVoicemail": "Tətbiqə səsli poçt qutunuza mesaj əlavə etməyə imkan verir.",
        "permdesc_answerPhoneCalls": "Gələn telefon zənglərinə cavab verməsi üçün tətbiqlərə icazə verin.",
        "permdesc_audioWrite": "Tətbiqə musiqi kolleksiyanıza dəyişiklik etmək icazəsi verir.",
        "permdesc_backgroundCamera": "Bu tətbiq istənilən vaxt kameradan istifadə edərək şəkil və video çəkə bilər.",
        "permdesc_bindCarrierMessagingService": "Sahibə operatorun mesajlaşma xidmətinin yüksək səviyyəli interfeysini əlaqələndirmək imkanı verir. Adi proqramlar üçün heç vaxt lazım olmur.",
        "permdesc_bindCarrierServices": "Sahibinə operator xidmətləri ilə əlaqələndirməyə icazə verir. Normal tətbiqlər üçün heç vaxt lazım olmamalıdır.",
        "permdesc_bindCellBroadcastService": "Tətbiqə mobil yayım mesajlarını alan kimi yönləndirmək üçün mobil yayım moduluna qoşulmağa icazə verir. Sizi fövqəladə hallar barədə xəbərdar etmək üçün bəzi yerlərdə mobil yayım siqnalları verilir. Zərərli tətbiqlər təcili mobil yayım qəbul etdikdə cihazınızın performansına və ya işləməsinə mane ola bilər.",
        "permdesc_bindConditionProviderService": "Sahibə şərait provayderi xidmətinin yuxarı səviyyəli interfeysini bənd etməyə imkan verir. Normal tətbiqlər tərəfindən istənilməməlidir.",
        "permdesc_bindDreamService": "Yuxarı səviyyəli interfeysi xəyal xidmətinə bənd etməyə icazə verir. Normal tətbiqlər tərəfindən heç vaxt istənilmir.",
        "permdesc_bindNotificationListenerService": "Sahibinə yüksək səviyyəli bildiriş dinləmə servisi ilə əlaqə saxlamağa icazə verir. Normal tətbiqlər tərəfindən heç vaxt istənilməməlidir.",
        "permdesc_bind_connection_service": "Tətbiqə telefoniya xidmətləri ilə qarşılıqlı əlaqədə olmağa, zəng etməyə və zəng qəbul etməyə icazə verir.",
        "permdesc_bind_incall_service": "Tətbiqə istifadəçinin zəngdə ikən ekranı nə vaxt və necə görəcəyinə icazə verir.",
        "permdesc_bluetooth": "Tətbiqə Bluetooth və ya telefon konfiqurasiyalarını görməyə və qoşulmuş cihazlarla əlaqə qurmağa və qəbul etməyə icazə verir.",
        "permdesc_bluetoothAdmin": "Tətbiqə lokal Bluetooth telefonunu konfiqurə etməyə və uzaq cihazları kəşf etmək və onlara qoşulmaq icazəsi verir.",
        "permdesc_bluetooth_advertise": "Tətbiqə yaxınlıqdakı Bluetooth cihazlarına özünü tanıtmaq icazəsi verir",
        "permdesc_bluetooth_connect": "Tətbiqə cütləşdirilmiş Bluetooth cihazlarına qoşulmağa icazə verir",
        "permdesc_bluetooth_scan": "Tətbiqin yaxınlıqdakı Bluetooth cihazlarını kəşf etməsinə və cütləşdirməsinə icazə verir",
        "permdesc_bodySensors": "Tətbiqə ürək döyüntüsü kimi fiziki durumunuzu izləməyən sensorların datasına daxil olmağa icazə verir.",
        "permdesc_broadcastSticky": "Tətbiqə yayım bitdikdən sonra da qalan çətin yayımlar göndərməyə imkan verir. Hədsiz istifadə çox yaddaş istifadəsinə səbəb olmaqla telefonu yavaş və qeyri-stabil edə bilər.",
        "permdesc_callCompanionApp": "Tətbiqə cihazda davam edən zəngləri görməyə və idarə etməyə icazə verir. Bura zənglər üçün zəng nömrələri və zənglərin vəziyyəti kimi məlumatlar daxildir.",
        "permdesc_callPhone": "Tətbiqə Sizin müdaxiləniz olmadan telefon zəngləri etməyə imkan verir. Zərərli tətbiqlər Sizdən xəbərsiz şəkildə müxtəlif zənglər edərək, Sizə maddi ziyan vura bilər. Qeyd: Bu, tətbiqlərə təcili nömrələrə zəng etməyə icazə vermir.",
        "permdesc_camera": "Bu tətbiq istifadə edilən zaman kameradan istifadə edərək şəkil çəkə və video yaza bilər.",
        "permdesc_cameraOpenCloseListener": "Bu tətbiq, istənilən kamera cihazı açıldıqda (kameranı açan tətbiq tərəfindən) və ya bağlandıqda geri zəngləri ala bilər.",
        "permdesc_changeNetworkState": "Tətbiqə şəbəkə vəziyyətini dəyişməyə icazə verir.",
        "permdesc_changeTetherState": "Tətbiqə birləşilmiş şəbəkə bağlantısının statusunu dəyişməyə imkan verir.",
        "permdesc_changeWifiMulticastState": "Tətbiqə qrup ünvanlar istifadə etməklə, Wi-Fi şəbəkəsində olan bütün cihazlara göndərilmiş paketləri qəbul etməyə imkan verir. Buna daha çox enerji sərf olunur.",
        "permdesc_changeWifiState": "Tətbiqə Wi-Fi çıxış nöqtəsinə qoşulmaq və ondan ayrılmaq və cihazın Wi-Fi şəbəkə nizamlarını dəyişməyə icazə verir.",
        "permdesc_changeWimaxState": "Tətbiqə telefonu WiMAX şəbəkəsinə qoşmağa və ya WiMAX şəbəkəsindən ayırmağa imkan verir.",
        "permdesc_connection_manager": "Tətbiqə telekom bağlantılarını idarə etməyə icazə verin.",
        "permdesc_control_incall_experience": "Tətbiqə çağrıdaxili istifadəçi təcrübəsi təmin etməyə icazə verir.",
        "permdesc_createNetworkSockets": "Tətbiqə şəbəkə soketlərini yaratmağa və fərdi şəbəkə protokollarını istifadə etməyə imkan verir. Brauzer və digər tətbiqlər datanın internetə ötürülməsini təmin edən vəsaitlər verir, ona görə də datanın internetə gönrədilməsi üçün bu icazə tələb olunmur.",
        "permdesc_disableKeyguard": "Tətbiqə kilid açarını və təhlükəsizlik parolunu deaktiv etməyə imkan verir. Qanuni misal budur ki, telefon zəng qəbul edən zaman kilidi açır və zəng qurtarandan sonra kilidi bağlayır.",
        "permdesc_enableCarMode": "Tətbiqə avtomobil rejimini aktivləşdirməyə imkan verir.",
        "permdesc_exemptFromAudioRecordRestrictions": "Tətbiqi audio yazmaq üçün məhdudiyyətlərdən azad edin.",
        "permdesc_expandStatusBar": "Tətbiqə status panelini genişləndirməyə və ya yox etməyə imkan verir.",
        "permdesc_foregroundService": "Tətbiqə ön fon xidmətlərini işlətmək icazəsi verin.",
        "permdesc_fullScreenIntent": "Tətbiqə bildirişləri kilidli cihazda tam ekran fəaliyyətləri kimi göstərməyə imkan verir",
        "permdesc_getAccounts": "Tətbiqə telefonda olan hesabların siyahısını əldə etməyə imkan verir. Buna quraşdırdığınız istənilən tətbiq tərəfindən yaradılan hesablar da aiddir.",
        "permdesc_getPackageSize": "Tətbiqə özünün kodunu, məlumatını və keş ölçüsünü alma icazəsi verir",
        "permdesc_getTasks": "Tətbiqə hazırda və az öncə işləyən tapşırıqlar haqqında ətraflı məlumat əldə etməyə imkan verir. Bu da cihazda hansı tətbiqlərin istifadə olunması haqqında məlumatların əldə edilməsinə imkan verir.",
        "permdesc_handoverStatus": "Bu tətbiqə hazırkı Android Beam transferləri haqqında məlumat əldə etməyə icazə verir",
        "permdesc_highSamplingRateSensors": "Tətbiqə 200 Hz-dən yuxarı tezlikdə sensor məlumatını seçməyə imkan verir",
        "permdesc_imagesWrite": "Tətbiqin foto kolleksiyanızı dəyişdirməsinə icazə verir.",
        "permdesc_install_shortcut": "İstifadəçi müdaxiləsi olmadan tətbiqə İş Stolu qısayolları əlavə etməyə icazə verir.",
        "permdesc_invokeCarrierSetup": "Sahibinə operator xidmətli tətbiq konfiqurasiyasına müraciət imkanı verir. Normal tətbiqlər üçün tələb olunmamalıdır.",
        "permdesc_killBackgroundProcesses": "Tətbiqə başqa tətbiqlərin arxafon proseslərini dayandırmaq icazəsi verir. Bu digər tətbiqlərin dayanmasına səbəb ola bilər.",
        "permdesc_manageFace": "Tətbiqə istifadə üçün üz şablonlarını əlavə etmək və silmək üsullarını işə salmaq icazəsi verir.",
        "permdesc_manageFingerprint": "Proqrama istifadə üçün barmaq izi şablonlarını əlavə etmək və silmək üçün üsullara müraciət etməyə imkan verir.",
        "permdesc_manageNetworkPolicy": "Tətbiqə şəbəkə qanunlarını və tətbiqin xüsusi qaydalarını idarə etmək imkanı verir.",
        "permdesc_manageOngoingCalls": "Tətbiqin cihazınızda davam edən zənglər haqqında təfərrüatları görüb bu zəngləri idarə etməsinə icazə verir.",
        "permdesc_manageOwnCalls": "Tətbiqə, zəng təcrübəsini yaxşılaşdırmaq üçün, zəngləri sistem üzərindən yönləndirməyə icazə verilir.",
        "permdesc_manageProfileAndDeviceOwners": "Profil və cihaz sahiblərini təyin etmək üçün tətbiqə icazə verin.",
        "permdesc_mediaLocation": "Tətbiqə media kolleksiyanızdan məkanları oxumağa icazə verir.",
        "permdesc_modifyAudioSettings": "Tətbiqə səs və hansı spikerin çıxış üçün istifadə olunduğu kimi qlobal səs ayarlarını dəyişdirməyə imkan verir.",
        "permdesc_modifyNetworkAccounting": "Tətbiqə şəbəkə istifadəsinin tətbiqlərə qarşı nizamlarını redaktə etməyə icazə verir. Normal tətbiqlər tərəfindən istifadə edilmir.",
        "permdesc_nfc": "Tətbiqə Yaxın Məsafə Kommunikasiyası (NFC) teqləri, kartları və oxuyucuları ilə əlaqə qurmağa icazə verir.",
        "permdesc_persistentActivity": "Tətbiqə öz komponentlərini yaddaşda saxlama icazəsi verir. Bu digər tətbiqlər üçün mövcud olan yaddaşı limitləyə bilər.",
        "permdesc_preferredPaymentInfo": "Tətbiqə qeydiyyatlı köməkçilər və marşrut təyinatı kimi üstünlük verilən NFC ödəniş xidməti məlumatını əldə etməyə icazə verir.",
        "permdesc_processOutgoingCalls": "Tətbiqə gedən zəng zamanı yığılan nömrəni görməyə imkan verir. Bu zaman zəngi başqa nömrəyə yönləndirmək və ya bütün zəngləri ləğv etmək funsiyası da təqdim olunur.",
        "permdesc_queryAllPackages": "Tətbiqə bütün quraşdırılmış paketləri görmək icazəsi verir.",
        "permdesc_readCalendar": "Bu tətbiq telefonda yerləşdirilmiş və təqvim datasında yadda saxlanmış bütün təqvim tədbirlərini oxuya bilər.",
        "permdesc_readCallLog": "Bu tətbiq zəng tarixçənizi oxuya bilər.",
        "permdesc_readCellBroadcasts": "Tətbiqə telefonunuz tərəfindən alınmış yayım mesajlarını oxuma icazəsi verir. Telefon yayımı bəzi məkanlarda olan fövqəladə hadisələrlə bağlı sizi xəbərdar etmək üçün qəbul edilir. Zərərli tətbiqlər təcili mobil yayım qəbul edildiyi zaman telefonunun performansına və əməliyyatına müdaxilə edə bilər.",
        "permdesc_readContacts": "Tətbiqə telefonunuzda saxlanılan kontaktlar haqqında datanı oxumaq icazəsi verir. Tətbiqlərin, həmçinin telefonunuzda kontaktlar yaradan hesablara da giriş imkanı olacaq. Buraya quraşdırdığınız tətbiqlər tərəfindən yaradılan hesablar daxil ola bilər. Bu icazə tətbiqlərə kontakt məlumatlarınızı yadda saxlamaq imkanı verir və zərərli tətbiqlər kontakt məlumatlarını xəbəriniz olmadan paylaşa bilər.",
        "permdesc_readHistoryBookmarks": "Tətbiqə Brauzerin daxil olduğu bütün linkləri və bütün Brauzer əlfəcinlərini oxumaq imkanı verir. Qeyd: bu icazə veb brauzer imkanları olan üçüncü tərəf brazuerləri və digər tətbiqlər tərəfindən yerinə yetirilə bilməz.",
        "permdesc_readInstallSessions": "Tətbiqə quraşdırma sessiyalarını oxumağa yardım edir. Bu da aktiv paket quraşdırmaları haqqında məlumatları görməyə imkan verir.",
        "permdesc_readNetworkUsageHistory": "Tətbiqə xüsusi şəbəkələr və tətbiqlər üçün tarixi şəbəkə istifadəsini oxumağa icazə verir.",
        "permdesc_readPhoneNumbers": "Tətbiqə cihazın telefon nömrələrinə daxil olmağa icazə verir.",
        "permdesc_readPhoneState": "Tətbiqə cihazın telefon funksiyalarına giriş icazəsi verir. Belə icazəli tətbiq bu telefonun nömrəsini və cihaz İD'ni, zəngin aktiv olub-olmadığını və zəng edilən nömrəni müəyyən edə bilər.",
        "permdesc_readSms": "Bu tətbiq, telefonda yadda saxlanmış bütün SMS (mətn) mesajlarını oxuya bilər.",
        "permdesc_readSyncSettings": "Tətbiqə hesablar üçün sinxronizasiya nizamlarını oxuma icazəsi verir. Məsələn, bu Şəxslər tətbiqinin sinxronizə olunub-olunmadığını təyin edə bilər.",
        "permdesc_readSyncStats": "Tətbiqə sync tədbirlərinin tarixçəsi və nə qədər datanın sinx olduğu da daxil olmaqla bərabər, hər hansı bir hesab üçün olan sinx statlarını oxumağa imkan verir.",
        "permdesc_receiveBootCompleted": "Tətbiqə sistem bootinqi bitirdikdən dərhal sonra özünü başlatmaq icazəsi verir. Bu telefonun açılmasını ləngidə və daima işlək qalaraq telefonun sürətini aşağı sala bilər.",
        "permdesc_receiveMms": "Tətbiqə MMS mesajlarını qəbul və emal üçün imkan verir. Bu o deməkdir ki, bu tətbiq sizə göstərmədən cihazınıza göndərilən mesajları silə bilər.",
        "permdesc_receiveSms": "Tətbiqə MMS mesajlarını almaq və emal etmək icazəsi verir. Bu o deməkdir ki, tətbiq sizin mesajlarınızı sizə göstərmədən monitorinq edə və ya silə bilər.",
        "permdesc_receiveWapPush": "Tətbiqə WAP mesajlar göndərmək və ya qəbul etmək imkanı verir. Buna mesajları izləmək və Sizə xəbər vermədən silmək imkanları da daxildir.",
        "permdesc_recordAudio": "Bu tətbiq istifadə edilən zaman mikrofondan istifadə edərək audio yaza bilər.",
        "permdesc_recordBackgroundAudio": "Bu tətbiq istənilən vaxt mikrofondan istifadə edərək audio yaza bilər.",
        "permdesc_register_call_provider": "Tətbiqə yeni telekom bağlantılarını qeydiyyatdan keçirməyə imkan verir.",
        "permdesc_register_sim_subscription": "Bu tətbiqə yeni telekom SİM bağlantılarını qeydiyyata almağa icazə ver.",
        "permdesc_removeDrmCertificates": "Tətbiqə müəllif hüquqlarının qorunması üçün texniki vasitələr sertifikatlarını silməyə icazə verir. Normal tətbiqlər tərəfindən heç vaxt tələb edilmir.",
        "permdesc_reorderTasks": "Tətbiqə tapşırıqları ön plandan arxa plana keçirməyə imkan verir. Tətbiq bunu Sizin daxiletməniz olmadan da edə bilər.",
        "permdesc_requestDeletePackages": "Tətbiqə paketlərin silinməsi sorğusunu göndərməyə icazə verir.",
        "permdesc_requestIgnoreBatteryOptimizations": "Tatareya optimallaşdırılmasını o tətbiq üçün iqnor edilməsinə icazə vermək məqsədilə soruşmağa tətbiqə icazə verilir.",
        "permdesc_requestInstallPackages": "Tətbiqə paketləri quraşdırma sorğusu göndərməyə icazə verir.",
        "permdesc_requestPasswordComplexity": "Tətbiqə ekran kilidinin mürəkkəblik səviyyəsini (yüksək, orta, aşağı və ya heç biri) öyrənməyə imkan verir ki, bu da mümkün uzunluq diapazonunu və ekran kilidinin növünü göstərir. Tətbiq həmçinin istifadəçilərə ekran kilidini müəyyən səviyyəyə yeniləməyi təklif edə bilər, lakin istifadəçilər bunu sərbəst şəkildə göz ardı edə və uzaqlaşa bilərlər. Qeyd edək ki, ekran kilidi şifrələnməmiş mətn kimi saxlanılmır, ona görə də tətbiq dəqiq parolu bilmir.",
        "permdesc_route_media_output": "Tətbiqə media çıxışını digər xarici cihazlara yönləndirmək imkanı verir.",
        "permdesc_runInBackground": "Bu tətbiq arxa fonda işləsə, batareya daha tez qurtara bilər.",
        "permdesc_sdcardRead": "Tətbiqə paylaşılan yaddaşdakı kontenti oxumaq imkanı verir.",
        "permdesc_sdcardWrite": "Tətbiqə paylaşılan yaddaşdakı kontenti yazmaq imkanı verir.",
        "permdesc_sendSms": "Tətbiqə SMS mesajı göndərmə icazəsi verir. Bu gözlənilməyən ödənişlərə səbəb ola bilər. Zərərli tətbiqlər sizin təsdiqiniz olmadan mesaj göndərməklə sizə ödənişə səbəb ola bilərlər.",
        "permdesc_setAlarm": "Tətbiqə quraşdırlmış zəngli saata alarm ayarlamağa imkan verir. Bəzi zəngli saat tətbiqləri bu özəlliyi dəstəkləməyə bilər.",
        "permdesc_setInputCalibration": "Sensor ekran parametr kalibrasiyalarını dəyişmək üçün tətbiqə icazə verin. Normal tətbiqlər belə şeyləri istəmir.",
        "permdesc_setTimeZone": "Tətbiqə telefon saat zolağını dəyişmək üçün imkan verir.",
        "permdesc_setWallpaper": "Tətbiqə sistemə divar kağızı yerləşdirmək icazəsi verir.",
        "permdesc_setWallpaperHints": "Tətbiqə sistem divar kağızı ölçüsü göstərişlərini müəyyən etməyə imkan verir.",
        "permdesc_sim_communication": "Tətbiqə SIM-ə əmrlər göndərməyə imkan verir. Bu, çox təhlükəlidir.",
        "permdesc_startViewPermissionUsage": "İcazə Sahibinin hansısa tətbiq üçün icazə istifadəsinə başlamaq icazəsi verir. Normal tətbiqlər üçün heç vaxt ehtiyac yoxdur.",
        "permdesc_statusBar": "Tətbiqə status panelini deaktiv etməyə və ya sistem ikonalarını əlavə etmək və ya silmək imkanı verir.",
        "permdesc_statusBarService": "Tətbiqə status paneli olmağa imkan verir.",
        "permdesc_subscribedFeedsRead": "Tətbiqə hazırda sinxron lentlər haqqında ətraflı məlumat almaq üçün imkan verir.",
        "permdesc_systemAlertWindow": "Bu tətbiq digər tətbiqlərin və ya ekran hissələrinin üzərində görünə bilər. Bu, normal tətbiq istifadəsinə müdaxilə edə və digər tətbiqlərin görünüşünün dəyişməsinə səbəb ola bilər.",
        "permdesc_systemCamera": "Bu imtiyazlı və ya sistem tətbiqi istənilən vaxt sistem kamerasından istifadə edərək şəkil çəkə və video çəkə bilər. Tətbiqdə də android.permission.CAMERA icazəsi tələb olunur",
        "permdesc_transmitIr": "Tətbiqə telefonun infraqırmızı ötürücüsünü istifadə etməyə icazə verir.",
        "permdesc_uninstall_shortcut": "İstifadəçi müdaxiləsi olmadan tətbiqə İş Stolu qısayollarını silməyə icazə verir.",
        "permdesc_useBiometric": "Doğrulama üçün biometrik proqramdan istifadə etməyə imkan verir",
        "permdesc_useDataInBackground": "Bu tətbiq datanı arxa fonda istifadə etsə, data istifadəsi arta bilər.",
        "permdesc_useFaceAuthentication": "Tətbiqə identifikasiya üçün üz ilə kiliddən açmaq aparatından istifadə etməyə icazə verir",
        "permdesc_useFingerprint": "Proqrama əsilliyi yoxlama üçün barmaq izi avadanlığından istifadə etməyə imkan verir",
        "permdesc_use_sip": "Tətbiqə SIP çağrılarını göndərməyə və qəbul etməyə icazə verin.",
        "permdesc_uwb_ranging": "Tətbiqə yaxınlıqdakı Ultra Genişzolaqlı cihazlar arasında nisbi mövqeyi müəyyən etməyə icazə verin",
        "permdesc_vibrate": "Tətbiqə vibratoru idarə etmə icazəsi verir.",
        "permdesc_vibrator_state": "Tətbiqə vibrasiya vəziyyətinə daxil olmaq icazəsi verir.",
        "permdesc_videoWrite": "Tətbiqə video kolleksiyanıza dəyişiklik etmək icazəsi verir.",
        "permdesc_wakeLock": "Tətbiqə telefonun yuxu rejimini qadağan etmək imkanı verir.",
        "permdesc_writeCalendar": "Bu tətbiq telefonunuzda təqvim tədbirləri əlavə edə, silə və ya dəyişiklik edə bilər. Həmçinin bu tətbiq təqvim sahiblərindən gəlmə ehtimalı olan mesajları göndərə və ya sahiblərinə bildirmədən tədbirlərdə dəyişiklik edə bilər.",
        "permdesc_writeCallLog": "Tətbiqə sizin daxil olan və gedən zənglər daxil olmaqla telefon zəngi loqlarınızı redaktə etmək icazəsi verir. Zərərli tətbiqlər bundan telefon loqlarınızı silmək və ya redaktə etmək üçün istifadə edə bilər.",
        "permdesc_writeContacts": "Tətbiqə telefonunuzda saxlanan kontaktlar haqqında datanı dəyişdirmək icazəsi verir. Bu icazə tətbiqlərə kontakt datasını silmək imkanı verir.",
        "permdesc_writeGeolocationPermissions": "Tətbiqə Brauzerin geolokasiya icazələrini dəyişməyə imkan verir. Zərərli tətbiqlər bundan istifadə edərək məkan məlumatlarını təsadüfi saytlara göndərə bilər.",
        "permdesc_writeHistoryBookmarks": "Tətbiqə Brauzer tarixçəsi və telefonunuzda saxlanılan əlfəcinlərə dəyişiklik etmək imkanı verir. Bununla tətbiqlə Brauzer datanızı silə və ya dəyişdirə bilər. Qeyd: bu icazə veb brauzer imkanları olan üçüncü tərəf brazuerləri və digər tətbiqlər tərəfindən yerinə yetirilə bilməz.",
        "permdesc_writeSettings": "Tətbiqə sistem ayarları datasını redaktə etmə icazəsi verir. Zərərli tətbiqlər sistem ayarlarını korlaya bilər.",
        "permdesc_writeSyncSettings": "Tətbiqə hesab üçün sinxronizasiya nizamlarını dəyişməyə icazə verir. Məsələn, bu istifadəçi hesablı Şəxslər tətbiqinin sinxronizasiyasını başlamaq üçün istifadə edilə bilər.",
        "permgroupbackgroundrequest_location": "Tətbiqə arxa fonda məkan icazəsi tələb etməyə icazə verin.",
        "permgroupbackgroundrequestdetail_location": "Tətbiq yalnız ondan istifadə etdiyiniz zaman məkana daxil ola biləcək",
        "permgroupdesc_activityRecognition": "fiziki fəaliyyətinizə daxil olmaq",
        "permgroupdesc_calendar": "təqvimə daxil olun",
        "permgroupdesc_calllog": "telefonun zəng qeydini oxuyun və yazın",
        "permgroupdesc_camera": "şəkil çəkin və video yazın",
        "permgroupdesc_contacts": "kontaktlarınıza daxil olun",
        "permgroupdesc_location": "cihazın yerini bilmək",
        "permgroupdesc_microphone": "səsi qeydə alın",
        "permgroupdesc_nearby_devices": "yaxınlıqdakı cihazları kəşf edin və onlara qoşulun",
        "permgroupdesc_phone": "telefon zəngləri edin və onları idarə edin",
        "permgroupdesc_sensors": "Həyati əlamətlər haqqında sensor dataya daxil olun",
        "permgroupdesc_sms": "göndərin və SMS mesajlarına baxın",
        "permgroupdesc_storage": "cihazınızda foto, media və fayllara daxil olun",
        "permgrouplab_activityRecognition": "Fiziki fəaliyyət",
        "permgrouplab_calendar": "Təqvim",
        "permgrouplab_calllog": "Zəng qeydləri",
        "permgrouplab_camera": "Kamera",
        "permgrouplab_contacts": "Kontaktlar",
        "permgrouplab_location": "Yer",
        "permgrouplab_microphone": "Mikrofon",
        "permgrouplab_nearby_devices": "Yaxınlıqdakı cihazlar",
        "permgrouplab_phone": "Telefon",
        "permgrouplab_sensors": "Bədən sensorları",
        "permgrouplab_sms": "SMS",
        "permgrouplab_storage": "Fayllar və media",
        "permgrouprequest_activityRecognition": "Tətbiqə fəaliyyətinizi izləməyə icazə verin.",
        "permgrouprequest_calendar": "<b>",
        "permgrouprequest_calllog": "<b>",
        "permgrouprequest_camera": "<b>",
        "permgrouprequest_contacts": "<b>",
        "permgrouprequest_location": "<b>",
        "permgrouprequest_microphone": "<b>",
        "permgrouprequest_phone": "<b>",
        "permgrouprequest_sensors": "<b>",
        "permgrouprequest_sms": "<b>",
        "permgrouprequest_storage": "<b>",
        "permgrouprequestdetail_location": "Tətbiq yalnız ondan istifadə etiyiniz zaman məkanı əldə edə bilər",
        "permission_request_notification_for_app_with_subtitle": "tərəfindən icazə tələb edilmişdir",
        "permlab_acceptHandover": "zəngə digər tətbiqdən davam edin",
        "permlab_accessBackgroundLocation": "arxa planda məkana daxil olun",
        "permlab_accessCoarseLocation": "yalnız ön planda təqribi məkana giriş",
        "permlab_accessDrmCertificates": "DRM sertifikatlarına giriş",
        "permlab_accessFineLocation": "yalnız ön planda dəqiq məkana daxil olun",
        "permlab_accessImsCallService": "IMS zəng xidmətinə giriş",
        "permlab_accessLocationExtraCommands": "əlavə məkan provayderi əmrlərinə çıxış",
        "permlab_accessNetworkConditions": "şəbəkə şəraiti haqqında müşahidələr üçün qulaq asmaq",
        "permlab_accessNetworkState": "şəbəkə bağlantılarına baxmaq",
        "permlab_accessNotifications": "bildirişlərə daxil ol",
        "permlab_accessWifiState": "Wi-Fi bağlantılarına baxmaq",
        "permlab_accessWimaxState": "WiMAX'a qoşul və bağlantını kəs",
        "permlab_access_notification_policy": "\\\"Narahat Etməyin\\\" funksiyasına daxil olun",
        "permlab_activityRecognition": "fiziki fəaliyyəti tanımaq",
        "permlab_addVoicemail": "Səsli poçt əlavə et",
        "permlab_answerPhoneCalls": "telefon zənglərinə cavab verin",
        "permlab_audioWrite": "musiqi kolleksiyanızı dəyişdirin",
        "permlab_backgroundCamera": "arxa fonda şəkil və video çəkin",
        "permlab_bindCarrierMessagingService": "operatorun mesaj",
        "permlab_bindCarrierServices": "operator xidmətləri ilə əlaqələndirin",
        "permlab_bindCellBroadcastService": "Mobil yayım mesajlarını yönləndirin",
        "permlab_bindConditionProviderService": "şərait provayderi xidmətinə bənd edin",
        "permlab_bindDreamService": "xəyal xidmətinə bənd edin",
        "permlab_bindNotificationListenerService": "bildiriş dinləmə xidmətinə bağlanır",
        "permlab_bind_connection_service": "telefoniya xidmətləri ilə qarşılıqlı əlaqə",
        "permlab_bind_incall_service": "çağrıdaxili ekrana müdaxilə",
        "permlab_bluetooth": "Bluetooth cihazları ilə cütləndirmək",
        "permlab_bluetoothAdmin": "Bluetooth ayarlarını əldə edir",
        "permlab_bluetooth_advertise": "yaxınlıqdakı Bluetooth cihazlarına özünü tanıt",
        "permlab_bluetooth_connect": "cütləşdirilmiş Bluetooth cihazlarına qoşulun",
        "permlab_bluetooth_scan": "yaxınlıqdakı Bluetooth cihazlarını kəşf edin və birləşdirin",
        "permlab_bodySensors": "bədən sensorlarına (ürək döyüntüsü monitorları kimi) giriş",
        "permlab_broadcastSticky": "daimi siqnal göndərmək",
        "permlab_callCompanionApp": "sistem vasitəsilə zəngləri görmək və idarə etmək.",
        "permlab_callPhone": "telefon nömrələrinə birbaşa zəng edir",
        "permlab_camera": "şəkil və video çəkmək",
        "permlab_cameraOpenCloseListener": "Tətbiqə və ya xidmətə yandırılmış və söndürülmüş kamera cihazları haqqında geri çağırışlar qəbul etməyə icazə verin.",
        "permlab_changeNetworkState": "şəbəkə bağlantısını dəyişir",
        "permlab_changeTetherState": "Sərhədli bağlantını dəyişir",
        "permlab_changeWifiMulticastState": "Wi-Fi Multicast qəbuluna icazə ver",
        "permlab_changeWifiState": "Wi-Fi şəbəkəsinə qoşulmaq və ya ayrılmaq",
        "permlab_changeWimaxState": "WiMAX vəziyyətini dəyişir",
        "permlab_connection_manager": "telekom bağlantılarını idarə edin",
        "permlab_control_incall_experience": "çağrıdaxili istifadəçi tərcübəsinin təmini",
        "permlab_createNetworkSockets": "tam şəbəkə girişi var",
        "permlab_disableKeyguard": "Ekran kilidini deaktiv edir",
        "permlab_enableCarMode": "avtomobil rejimini aktivləşdirir",
        "permlab_exemptFromAudioRecordRestrictions": "səs yazan məhdudiyyətlərindən azaddır",
        "permlab_expandStatusBar": "status panelini genişlətmək və ya yığmaq",
        "permlab_foregroundService": "ön fon xidmətindən istifadə edin",
        "permlab_fullScreenIntent": "bildirişləri kilidli cihazda tam ekran fəaliyyətləri kimi göstərin",
        "permlab_getAccounts": "cihazda hesabları tapır",
        "permlab_getPackageSize": "tətbiq saxlama yaddaşını ölçmək",
        "permlab_getTasks": "işlənən tətbiqlər əldə etmək",
        "permlab_handoverStatus": "Android Beam transfer statusunu əldə edin",
        "permlab_highSamplingRateSensors": "yüksək seçmə sürəti ilə sensor məlumatlarına daxil olun",
        "permlab_imagesWrite": "foto kolleksiyanızı dəyişdirin",
        "permlab_install_shortcut": "qısayolları quraşdır",
        "permlab_invokeCarrierSetup": "operator xidmətli konfiurasiya tətbiqinə müraciət edin",
        "permlab_killBackgroundProcesses": "digər tətbiqləri qapatmaq",
        "permlab_manageFace": "üz ilə kiliddən açma aparatını idarə edin",
        "permlab_manageFingerprint": "barmaq izi avadanlığını idarə edin",
        "permlab_manageNetworkPolicy": "şəbəkə siyasətini idarə etmək",
        "permlab_manageOngoingCalls": "Davam edən zəngləri idarə edin",
        "permlab_manageOwnCalls": "zəngləri sistem üzərindən yönləndirin",
        "permlab_manageProfileAndDeviceOwners": "profil və cihaz sahiblərini idarə edin",
        "permlab_mediaLocation": "media kolleksiyanızdan məkanları oxuyun",
        "permlab_modifyAudioSettings": "audio ayarlarınızı dəyişir",
        "permlab_modifyNetworkAccounting": "şəbəkə istifadə hesabını dəyişmək",
        "permlab_nfc": "Near Field Communication'ı kontrol et",
        "permlab_persistentActivity": "təbiqi həmişə çalışdır",
        "permlab_preferredPaymentInfo": "Üstünlük verilən NFC Ödəniş Xidməti Məlumatı",
        "permlab_processOutgoingCalls": "gedən zənglərin marşrutunu dəyişmək",
        "permlab_queryAllPackages": "bütün paketləri sorğulayın",
        "permlab_readCalendar": "Təqvim təqdirləri və detallarını oxuyun",
        "permlab_readCallLog": "zəng qeydiyyatını oxu",
        "permlab_readCellBroadcasts": "mobil yayım mesajlarını oxuyur",
        "permlab_readContacts": "kontakrlatınızı oxumaq",
        "permlab_readHistoryBookmarks": "Veb əlfəcinlərinizi və tarixçələrinizi oxumaq",
        "permlab_readInstallSessions": "quraşdırma sessiyalarını oxuyun",
        "permlab_readNetworkUsageHistory": "tarixi şəbəkə istifadəsini oxu",
        "permlab_readPhoneNumbers": "telefon nömrələrini oxuyun",
        "permlab_readPhoneState": "telefon statusunu və identifikasiyanı oxuyur",
        "permlab_readSms": "tekst mesajlarınızı oxuyur (SMS və ya MMS)",
        "permlab_readSyncSettings": "sinx ayarlarını oxu",
        "permlab_readSyncStats": "sinxronizasiya statistikasını oxumaq",
        "permlab_receiveBootCompleted": "başlanğıcda işləyir",
        "permlab_receiveMms": "mətn mesajlarını qəbul edir (MMS)",
        "permlab_receiveSms": "SMS qəbul etmək",
        "permlab_receiveWapPush": "mətn mesajları qəbul etmək (WAP)",
        "permlab_recordAudio": "səs yaz",
        "permlab_recordBackgroundAudio": "arxa fonda səs yazın",
        "permlab_register_call_provider": "yeni telekom bağlantılarını qeydiyyata alın",
        "permlab_register_sim_subscription": "yeni telekom bağlantılarını qeydiyyata alın",
        "permlab_removeDrmCertificates": "Müəllif hüquqlarının qorunması üçün texniki vasitələr sertifikatlarını silin",
        "permlab_reorderTasks": "işlənən tətbiqlərin sırasını dəyişmək",
        "permlab_requestDeletePackages": "paketlərin silinmə sorğusu",
        "permlab_requestIgnoreBatteryOptimizations": "batareya optimallaşdırmasını iqnor etmək üçün soruşun",
        "permlab_requestInstallPackages": "paketləri quraşdırma sorğusu",
        "permlab_requestPasswordComplexity": "ekran kilidi mürəkkəbliyini tələb edin",
        "permlab_route_media_output": "media çıxışını yönləndirin",
        "permlab_runInBackground": "arxa fonda işləmə",
        "permlab_sdcardRead": "paylaşılan yaddaşdakı kontenti oxumaq",
        "permlab_sdcardWrite": "paylaşılan yaddaşdakı kontenti dəyişmək və ya silmək",
        "permlab_sendSms": "göndərin və SMS mesajlarına baxın",
        "permlab_setAlarm": "siqnal qurur",
        "permlab_setInputCalibration": "daxiletmə cihaz kalibrasiyasını dəyişin",
        "permlab_setTimeZone": "vaxt zonasını quraşdırır",
        "permlab_setWallpaper": "divar kağızı yerləşdirir",
        "permlab_setWallpaperHints": "divar kağızı ölçüsünü verir",
        "permlab_sim_communication": "əmrləri SIM'ə göndərin",
        "permlab_startViewPermissionUsage": "baxış icazəsi istifadəsinə başlayın",
        "permlab_statusBar": "status panelini deaktivləşdir və ya dəyişdir",
        "permlab_statusBarService": "status paneli edin",
        "permlab_subscribedFeedsRead": "abunə olunmuş xəbərləri oxuyur",
        "permlab_systemAlertWindow": "Bu tətbiq digər tətbiqlərin üzərində görünə bilər",
        "permlab_systemCamera": "Şəkillər və videolar çəkmək üçün tətbiqə və ya xidmətə sistem kameralarına giriş icazəsi verin",
        "permlab_transmitIr": "infraqırmızı ötür",
        "permlab_uninstall_shortcut": "qısayolları sistemdən sil",
        "permlab_useBiometric": "biometrik proqramdan istifadə edin",
        "permlab_useDataInBackground": "datanın arxa fonda istifadəsi",
        "permlab_useFaceAuthentication": "üz ilə kiliddən açma aparatından istifadə edin",
        "permlab_useFingerprint": "barmaq izi avadanlığından istifadə edin",
        "permlab_use_sip": "SIP çağrıları göndərin/qəbul edin",
        "permlab_uwb_ranging": "yaxınlıqdakı Ultra Genişzolaqlı cihazlar arasında nisbi mövqeyi müəyyənləşdirin",
        "permlab_vibrate": "vibrasiyaya nəzarət edir",
        "permlab_videoWrite": "video kolleksiyanızı dəyişdirin",
        "permlab_wakeLock": "telefonun yuxu rejiminə keçməsini əngəllə",
        "permlab_writeCalendar": "cihaz sahibinin icazəsi olmadan təqvim tədbirləri əlavə etmək və ya dəyişmək, bunun haqqında bildirişlər göndərmək",
        "permlab_writeCallLog": "zəng loqu yazır",
        "permlab_writeContacts": "kontaktlarınızı dəyişdirir",
        "permlab_writeGeolocationPermissions": "Brauzerin geolokasiya icazələrini dəyişir",
        "permlab_writeHistoryBookmarks": "veb əlfəcinləri və tarixçəsi yazmaq",
        "permlab_writeSettings": "sistem ayarlarında dəyişiklik etmək",
        "permlab_writeSyncSettings": "sinxronizasiyaya davam edir və onu söndürür"
    },
    "sidebars": {
        "donate": {
            "bank_transfer_name": "Ad",
            "bitcoin_alt": "Bitcoin vasitəsilə İanə edin",
            "credit_card": "Kredit Kartı",
            "crypto": "Kripto",
            "currency": "Pul",
            "flattr_alt": "Flattr vasitəsilə İanə edin",
            "heading": "İanə Edin",
            "hellotux": "👕 Köynəklər 👕-dan",
            "hellotux_alt": "HELLOTUX",
            "hellotux_donation": "F-Droid satılan hər köynək üçün 3 Avro alacaq.",
            "liberapay_alt": "Liberapay vasitəsilə İanə edin",
            "litecoin_alt": "Litecoin vasitəsilə İanə edin",
            "more_options": "Daha çox Seçimlər",
            "opencollective_alt": "Kollektivimizə İanə edin",
            "paypal": "PayPal",
            "paypal_alt": "PayPal vasitəsilə İanə edin",
            "powered_by_donations": "F-Droid sizin ianələrinizlə güclənir!",
            "via_bank_transfer": "Bank Köçürməsi"
        },
        "lang": {
            "change": "Dəyişin"
        },
        "last_updated": {
            "heading": "Son Yenilənmə"
        },
        "latest_packages": {
            "heading": "Ən Son Tətbiqlər"
        },
        "news": {
            "heading": "Xəbərlər"
        },
        "search": {
            "heading": "Tətbiqləri Tapın",
            "noscript": "JavaScript-in Aktivləşdirilməsini Tələb Edir",
            "search": "Axtarış"
        }
    }
}
